{ "columns":0,
 "editorsettings":
    {
     "export":
        {
         "format":"",
         "target":"."
        }
    },
 "grid":
    {
     "height":1,
     "orientation":"orthogonal",
     "width":1
    },
 "margin":0,
 "name":"basic",
 "spacing":0,
 "tilecount":4,
 "tiledversion":"1.3.5",
 "tileheight":32,
 "tiles":[
        {
         "id":0,
         "image":"..\/sprites\/tile.barrel\/tile.png",
         "imageheight":32,
         "imagewidth":32,
         "properties":[
                {
                 "name":"collisions_policy",
                 "type":"bool",
                 "value":true
                }]
        }, 
        {
         "id":1,
         "image":"..\/sprites\/tile.slab\/tile.png",
         "imageheight":32,
         "imagewidth":32
        }, 
        {
         "id":2,
         "image":"..\/sprites\/tile.grass\/tile.png",
         "imageheight":32,
         "imagewidth":32
        }, 
        {
         "id":3,
         "image":"..\/sprites\/tile.wall\/tile.png",
         "imageheight":32,
         "imagewidth":32,
         "properties":[
                {
                 "name":"collisions_policy",
                 "type":"bool",
                 "value":true
                }]
        }],
 "tilewidth":32,
 "type":"tileset",
 "version":1.2
}